<svg xmlns="http://www.w3.org/2000/svg" width="63" height="63" viewBox="0 0 63 63">
    <g fill="none" fill-rule="evenodd" stroke-linecap="round" stroke-linejoin="round" stroke-width="3" transform="translate(1 1)">
        <path stroke="#002C8B" d="M48.5.5L22.3 26.6c-5.7-1.5-12.1-.1-16.5 4.4-6.7 6.7-6.7 17.5 0 24.2 6.7 6.7 17.5 6.7 24.2 0 4.5-4.5 5.9-10.8 4.4-16.5l6.1-6.2v-8h8v-8h8l4-4V.5h-12z"/>
        <circle cx="13.5" cy="44.5" r="5" stroke="#00B5E1"/>
    </g>
</svg>
